<!DOCTYPE svg PUBLIC "-//W3C//DTD SVG 1.1//EN" "http://www.w3.org/Graphics/SVG/1.1/DTD/svg11.dtd">
<svg height="100" width="200" version="1.1" xmlns="http://www.w3.org/2000/svg" xmlns:xlink="http://www.w3.org/1999/xlink" xml:space="preserve">
    <style>
        * {
            stroke:#000;
            stroke-width:4;
        }
    </style>
    <line x1="0" y1="49" x2="82" y2="49" />
    <line x1="108" y1="49" x2="200" y2="49" />

    <rect x="82" y="20" width="10" height="60" />
    <rect x="108" y="20" width="10" height="60" />

    <line x1="55" y1="30" x2="75" y2="30" />
    <line x1="65" y1="20" x2="65" y2="40" />
</svg>